{
  "$schema": "http://json-schema.org/draft-04/schema#",
  "type": "object",
  "properties": {
    "response": {
      "type": "array",
      "items": {
        "$ref": "assessment.json#/properties/response"
      }
    }
  },
  "required": [
    "response"
  ]
}
