{
  "$schema": "http://json-schema.org/draft-04/schema#",
  "type": "object",
  "properties": {
    "response": {
      "type": "object",
      "additionalProperties": false,
      "properties": {
        "id": {
          "type": "integer"
        },
        "created_at": {
          "type": "string",
          "format": "date-time"
        },
        "updated_at": {
          "type": "string",
          "format": "date-time"
        },
        "result_export_queue_id": {
          "type": "integer"
        },
        "site_url": {
          "type": "string"
        },
        "title": {
          "type": "string"
        },
        "project_key": {
          "type": "string"
        },
        "username": {
          "type": "string"
        },
        "required": [
          "id",
          "created_at",
          "updated_at",
          "result_export_queue_id",
          "title",
          "site_url",
          "username",
          "project_key",
          "created_at",
          "updated_at"
        ]
      }
    },
    "required": [
      "response"
    ]
  }
}
