{
  "$schema": "http://json-schema.org/draft-04/schema#",
  "type": "object",
  "properties": {
    "response": {
      "type": "object",
      "additionalProperties": false,
      "properties": {
        "id": {
          "type": "integer"
        },
        "requirement_group_id": {
          "type": "integer"
        },
        "organization_id": {
          "type": "integer"
        },
        "requirement_group_name": {
          "type": "string"
        }
      },
      "required": [
        "id",
        "requirement_group_id",
        "organization_id",
        "requirement_group_name"
      ]
    }
  },
  "required": [
    "response"
  ]
}
