{
  "$schema": "http://json-schema.org/draft-04/schema#",
  "type": "object",
  "properties": {
    "response": {
      "type": "object",
      "additionalProperties": false,
      "properties": {
        "id": {
          "type": "integer"
        },
        "organization_id": {
          "type": "integer"
        },
        "created_at": {
          "type": "string"
        },
        "updated_at": {
          "type": "string"
        },
        "period": {
          "type": "string"
        },
        "at": {
          "type": "string"
        }
      },
      "required": [
        "id",
        "organization_id",
        "created_at",
        "updated_at",
        "period",
        "at"
      ]
    }
  },
  "required": [
    "response"
  ]
}
