{
  "$schema": "http://json-schema.org/draft-04/schema#",
  "type": "object",
  "properties": {
    "response": {
      "type": "object",
      "additionalProperties": false,
      "properties": {
        "name": {
          "type": "string"
        }
      },
      "required": [
        "name"
      ]
    }
  },
  "required": [
    "response"
  ]
}
