{
  "$schema": "http://json-schema.org/draft-04/schema#",
  "type": "object",
  "properties": {
    "response": {
      "type": "object",
      "additionalProperties": false,
      "properties": {
        "id": {
          "type": "integer"
        },
        "name": {
          "type": [
            "null",
            "string"
          ]
        },
        "description": {
          "type": [
            "null",
            "string"
          ]
        },
        "port": {
          "type": "integer"
        },
        "port_type": {
          "type": "string"
        },
        "encryption_type": {
          "type": "string"
        },
        "machine_id": {
          "id": "integer"
        },
        "type": {
          "type": "string"
        },
        "allow_brute_force": {
          "type": "boolean"
        },
        "discovered": {
          "type": "boolean"
        },
        "created_at": {
          "type": "string",
          "format": "date-time"
        },
        "updated_at": {
          "type": "string",
          "format": "date-time"
        },
        "application_type": {
          "$ref": "application_type.json#/properties/"
        },
        "service_identity": {
          "$ref": "service_identity.json#/properties/response"
        },
        "web_application_config": {
          "$ref": "web_application_config.json#/properties/response"
        }
      },
      "required": [
        "id",
        "name",
        "description",
        "port",
        "port_type",
        "encryption_type",
        "type",
        "allow_brute_force",
        "discovered",
        "created_at",
        "updated_at",
        "application_type"
      ]
    }
  },
  "required": [
    "response"
  ]
}
